Die Mai  3 04:23:32 CEST 2016
100 nanopubs...200 nanopubs...300 nanopubs...400 nanopubs...500 nanopubs...600 nanopubs...700 nanopubs...800 nanopubs...900 nanopubs...1000 nanopubs...1100 nanopubs...1200 nanopubs...1300 nanopubs...1400 nanopubs...1500 nanopubs...1600 nanopubs...1700 nanopubs...1800 nanopubs...1900 nanopubs...2000 nanopubs...2100 nanopubs...2200 nanopubs...2300 nanopubs...2400 nanopubs...2500 nanopubs...2600 nanopubs...2700 nanopubs...2800 nanopubs...2900 nanopubs...3000 nanopubs...3100 nanopubs...3200 nanopubs...3300 nanopubs...3400 nanopubs...3500 nanopubs...3600 nanopubs...3700 nanopubs...3800 nanopubs...3900 nanopubs...4000 nanopubs...4100 nanopubs...4200 nanopubs...4300 nanopubs...4400 nanopubs...4500 nanopubs...4600 nanopubs...4700 nanopubs...4800 nanopubs...4900 nanopubs...5000 nanopubs...5100 nanopubs...5200 nanopubs...5300 nanopubs...5400 nanopubs...5500 nanopubs...5600 nanopubs...5700 nanopubs...5800 nanopubs...5900 nanopubs...6000 nanopubs...6100 nanopubs...6200 nanopubs...6300 nanopubs...6400 nanopubs...6500 nanopubs...6600 nanopubs...6700 nanopubs...6800 nanopubs...6900 nanopubs...7000 nanopubs...7100 nanopubs...7200 nanopubs...7300 nanopubs...7400 nanopubs...7500 nanopubs...7600 nanopubs...7700 nanopubs...7800 nanopubs...7900 nanopubs...8000 nanopubs...8100 nanopubs...8200 nanopubs...8300 nanopubs...8400 nanopubs...8500 nanopubs...8600 nanopubs...8700 nanopubs...8800 nanopubs...8900 nanopubs...9000 nanopubs...9100 nanopubs...9200 nanopubs...9300 nanopubs...9400 nanopubs...9500 nanopubs...9600 nanopubs...9700 nanopubs...9800 nanopubs...9900 nanopubs...10000 nanopubs...10100 nanopubs...10200 nanopubs...10300 nanopubs...10400 nanopubs...10500 nanopubs...10600 nanopubs...10700 nanopubs...10800 nanopubs...10900 nanopubs...11000 nanopubs...11100 nanopubs...11200 nanopubs...11300 nanopubs...11400 nanopubs...11500 nanopubs...11600 nanopubs...11700 nanopubs...11800 nanopubs...11900 nanopubs...12000 nanopubs...12100 nanopubs...12200 nanopubs...12300 nanopubs...12400 nanopubs...12500 nanopubs...12600 nanopubs...12700 nanopubs...12800 nanopubs...12900 nanopubs...13000 nanopubs...13100 nanopubs...13200 nanopubs...13300 nanopubs...13400 nanopubs...13500 nanopubs...13600 nanopubs...13700 nanopubs...13800 nanopubs...13900 nanopubs...14000 nanopubs...14100 nanopubs...14200 nanopubs...14300 nanopubs...14400 nanopubs...14500 nanopubs...14600 nanopubs...14700 nanopubs...14800 nanopubs...14900 nanopubs...15000 nanopubs...15100 nanopubs...15200 nanopubs...15300 nanopubs...15400 nanopubs...15500 nanopubs...15600 nanopubs...15700 nanopubs...15800 nanopubs...15900 nanopubs...16000 nanopubs...16100 nanopubs...16200 nanopubs...16300 nanopubs...16400 nanopubs...16500 nanopubs...16600 nanopubs...16700 nanopubs...16800 nanopubs...16900 nanopubs...17000 nanopubs...17100 nanopubs...17200 nanopubs...17300 nanopubs...17400 nanopubs...17500 nanopubs...17600 nanopubs...17700 nanopubs...17800 nanopubs...04:24:57,773  INFO RetryExec:94 - I/O exception (org.apache.http.NoHttpResponseException) caught when processing request to {}->http://nanopub.backend1.scify.org:80: The target server failed to respond
04:24:57,774  INFO RetryExec:110 - Retrying request to {}->http://nanopub.backend1.scify.org:80
17900 nanopubs...18000 nanopubs...18100 nanopubs...18200 nanopubs...18300 nanopubs...18400 nanopubs...18500 nanopubs...18600 nanopubs...18700 nanopubs...18800 nanopubs...18900 nanopubs...19000 nanopubs...19100 nanopubs...19200 nanopubs...19300 nanopubs...19400 nanopubs...19500 nanopubs...19600 nanopubs...19700 nanopubs...19800 nanopubs...19900 nanopubs...20000 nanopubs...20100 nanopubs...20200 nanopubs...20300 nanopubs...20400 nanopubs...20500 nanopubs...20600 nanopubs...20700 nanopubs...20800 nanopubs...20900 nanopubs...21000 nanopubs...21100 nanopubs...21200 nanopubs...21300 nanopubs...21400 nanopubs...21500 nanopubs...21600 nanopubs...21700 nanopubs...21800 nanopubs...21900 nanopubs...22000 nanopubs...22100 nanopubs...22200 nanopubs...22300 nanopubs...22400 nanopubs...22500 nanopubs...22600 nanopubs...22700 nanopubs...22800 nanopubs...22900 nanopubs...23000 nanopubs...23100 nanopubs...23200 nanopubs...23300 nanopubs...23400 nanopubs...23500 nanopubs...23600 nanopubs...23700 nanopubs...23800 nanopubs...23900 nanopubs...24000 nanopubs...24100 nanopubs...24200 nanopubs...24300 nanopubs...24400 nanopubs...24500 nanopubs...24600 nanopubs...24700 nanopubs...24800 nanopubs...24900 nanopubs...25000 nanopubs...25100 nanopubs...25200 nanopubs...25300 nanopubs...25400 nanopubs...25500 nanopubs...25600 nanopubs...25700 nanopubs...25800 nanopubs...25900 nanopubs...26000 nanopubs...26100 nanopubs...26200 nanopubs...26300 nanopubs...26400 nanopubs...26500 nanopubs...26600 nanopubs...26700 nanopubs...26800 nanopubs...26900 nanopubs...27000 nanopubs...27100 nanopubs...27200 nanopubs...27300 nanopubs...27400 nanopubs...27500 nanopubs...27600 nanopubs...27700 nanopubs...27800 nanopubs...27900 nanopubs...28000 nanopubs...28100 nanopubs...28200 nanopubs...28300 nanopubs...28400 nanopubs...28500 nanopubs...28600 nanopubs...28700 nanopubs...28800 nanopubs...28900 nanopubs...29000 nanopubs...29100 nanopubs...29200 nanopubs...29300 nanopubs...29400 nanopubs...29500 nanopubs...29600 nanopubs...29700 nanopubs...29800 nanopubs...29900 nanopubs...30000 nanopubs...30100 nanopubs...30200 nanopubs...30300 nanopubs...30400 nanopubs...30500 nanopubs...30600 nanopubs...30700 nanopubs...30800 nanopubs...30900 nanopubs...31000 nanopubs...31100 nanopubs...31200 nanopubs...31300 nanopubs...31400 nanopubs...31500 nanopubs...31600 nanopubs...31700 nanopubs...31800 nanopubs...31900 nanopubs...32000 nanopubs...32100 nanopubs...32200 nanopubs...32300 nanopubs...32400 nanopubs...32500 nanopubs...32600 nanopubs...32700 nanopubs...32800 nanopubs...32900 nanopubs...33000 nanopubs...04:26:04,614  INFO RetryExec:94 - I/O exception (org.apache.http.NoHttpResponseException) caught when processing request to {}->http://nanopub.backend1.scify.org:80: The target server failed to respond
04:26:04,615  INFO RetryExec:110 - Retrying request to {}->http://nanopub.backend1.scify.org:80
33100 nanopubs...33200 nanopubs...33300 nanopubs...33400 nanopubs...33500 nanopubs...33600 nanopubs...33700 nanopubs...33800 nanopubs...33900 nanopubs...34000 nanopubs...34100 nanopubs...34200 nanopubs...34300 nanopubs...34400 nanopubs...34500 nanopubs...34600 nanopubs...34700 nanopubs...34800 nanopubs...34900 nanopubs...35000 nanopubs...35100 nanopubs...35200 nanopubs...35300 nanopubs...35400 nanopubs...35500 nanopubs...35600 nanopubs...35700 nanopubs...35800 nanopubs...35900 nanopubs...36000 nanopubs...36100 nanopubs...36200 nanopubs...36300 nanopubs...36400 nanopubs...36500 nanopubs...36600 nanopubs...36700 nanopubs...36800 nanopubs...36900 nanopubs...37000 nanopubs...37100 nanopubs...37200 nanopubs...37300 nanopubs...37400 nanopubs...37500 nanopubs...37600 nanopubs...37700 nanopubs...37800 nanopubs...37900 nanopubs...38000 nanopubs...38100 nanopubs...38200 nanopubs...38300 nanopubs...38400 nanopubs...38500 nanopubs...38600 nanopubs...38700 nanopubs...38800 nanopubs...38900 nanopubs...39000 nanopubs...39100 nanopubs...39200 nanopubs...39300 nanopubs...39400 nanopubs...39500 nanopubs...39600 nanopubs...39700 nanopubs...39800 nanopubs...39900 nanopubs...40000 nanopubs...40100 nanopubs...40200 nanopubs...40300 nanopubs...40400 nanopubs...40500 nanopubs...40600 nanopubs...40700 nanopubs...40800 nanopubs...40900 nanopubs...41000 nanopubs...41100 nanopubs...41200 nanopubs...41300 nanopubs...41400 nanopubs...41500 nanopubs...41600 nanopubs...41700 nanopubs...41800 nanopubs...41900 nanopubs...42000 nanopubs...42100 nanopubs...42200 nanopubs...42300 nanopubs...42400 nanopubs...42500 nanopubs...42600 nanopubs...42700 nanopubs...42800 nanopubs...42900 nanopubs...43000 nanopubs...43100 nanopubs...43200 nanopubs...43300 nanopubs...43400 nanopubs...43500 nanopubs...43600 nanopubs...43700 nanopubs...43800 nanopubs...43900 nanopubs...44000 nanopubs...44100 nanopubs...44200 nanopubs...44300 nanopubs...44400 nanopubs...44500 nanopubs...44600 nanopubs...44700 nanopubs...44800 nanopubs...44900 nanopubs...45000 nanopubs...45100 nanopubs...45200 nanopubs...45300 nanopubs...45400 nanopubs...45500 nanopubs...45600 nanopubs...45700 nanopubs...45800 nanopubs...45900 nanopubs...46000 nanopubs...46100 nanopubs...46200 nanopubs...46300 nanopubs...46400 nanopubs...46500 nanopubs...46600 nanopubs...46700 nanopubs...46800 nanopubs...46900 nanopubs...47000 nanopubs...47100 nanopubs...47200 nanopubs...47300 nanopubs...47400 nanopubs...47500 nanopubs...47600 nanopubs...47700 nanopubs...47800 nanopubs...47900 nanopubs...48000 nanopubs...48100 nanopubs...48200 nanopubs...48300 nanopubs...48400 nanopubs...48500 nanopubs...48600 nanopubs...48700 nanopubs...48800 nanopubs...48900 nanopubs...49000 nanopubs...49100 nanopubs...04:27:09,090  INFO RetryExec:94 - I/O exception (org.apache.http.NoHttpResponseException) caught when processing request to {}->http://nanopub.backend1.scify.org:80: The target server failed to respond
04:27:09,090  INFO RetryExec:110 - Retrying request to {}->http://nanopub.backend1.scify.org:80
49200 nanopubs...49300 nanopubs...49400 nanopubs...49500 nanopubs...49600 nanopubs...49700 nanopubs...49800 nanopubs...49900 nanopubs...50000 nanopubs...50100 nanopubs...50200 nanopubs...50300 nanopubs...50400 nanopubs...50500 nanopubs...50600 nanopubs...50700 nanopubs...50800 nanopubs...50900 nanopubs...51000 nanopubs...51100 nanopubs...51200 nanopubs...51300 nanopubs...51400 nanopubs...51500 nanopubs...51600 nanopubs...51700 nanopubs...51800 nanopubs...51900 nanopubs...52000 nanopubs...52100 nanopubs...52200 nanopubs...52300 nanopubs...52400 nanopubs...52500 nanopubs...52600 nanopubs...52700 nanopubs...52800 nanopubs...52900 nanopubs...53000 nanopubs...53100 nanopubs...53200 nanopubs...53300 nanopubs...53400 nanopubs...53500 nanopubs...53600 nanopubs...53700 nanopubs...53800 nanopubs...53900 nanopubs...54000 nanopubs...54100 nanopubs...54200 nanopubs...54300 nanopubs...54400 nanopubs...54500 nanopubs...54600 nanopubs...54700 nanopubs...54800 nanopubs...54900 nanopubs...55000 nanopubs...55100 nanopubs...55200 nanopubs...55300 nanopubs...55400 nanopubs...55500 nanopubs...55600 nanopubs...55700 nanopubs...55800 nanopubs...55900 nanopubs...56000 nanopubs...56100 nanopubs...56200 nanopubs...56300 nanopubs...56400 nanopubs...56500 nanopubs...56600 nanopubs...56700 nanopubs...56800 nanopubs...56900 nanopubs...57000 nanopubs...57100 nanopubs...57200 nanopubs...57300 nanopubs...57400 nanopubs...57500 nanopubs...57600 nanopubs...57700 nanopubs...57800 nanopubs...57900 nanopubs...58000 nanopubs...58100 nanopubs...58200 nanopubs...58300 nanopubs...58400 nanopubs...58500 nanopubs...58600 nanopubs...58700 nanopubs...58800 nanopubs...58900 nanopubs...59000 nanopubs...59100 nanopubs...59200 nanopubs...59300 nanopubs...59400 nanopubs...59500 nanopubs...59600 nanopubs...59700 nanopubs...59800 nanopubs...59900 nanopubs...60000 nanopubs...60100 nanopubs...60200 nanopubs...60300 nanopubs...60400 nanopubs...60500 nanopubs...60600 nanopubs...60700 nanopubs...60800 nanopubs...60900 nanopubs...61000 nanopubs...61100 nanopubs...61200 nanopubs...61300 nanopubs...61400 nanopubs...61500 nanopubs...61600 nanopubs...61700 nanopubs...61800 nanopubs...61900 nanopubs...62000 nanopubs...62100 nanopubs...62200 nanopubs...62300 nanopubs...62400 nanopubs...62500 nanopubs...62600 nanopubs...62700 nanopubs...62800 nanopubs...62900 nanopubs...63000 nanopubs...63100 nanopubs...63200 nanopubs...63300 nanopubs...63400 nanopubs...63500 nanopubs...63600 nanopubs...63700 nanopubs...63800 nanopubs...63900 nanopubs...64000 nanopubs...64100 nanopubs...64200 nanopubs...64300 nanopubs...64400 nanopubs...64500 nanopubs...64600 nanopubs...04:28:12,581  INFO RetryExec:94 - I/O exception (org.apache.http.NoHttpResponseException) caught when processing request to {}->http://nanopub.backend1.scify.org:80: The target server failed to respond
04:28:12,581  INFO RetryExec:110 - Retrying request to {}->http://nanopub.backend1.scify.org:80
64700 nanopubs...64800 nanopubs...64900 nanopubs...65000 nanopubs...65100 nanopubs...65200 nanopubs...65300 nanopubs...65400 nanopubs...65500 nanopubs...65600 nanopubs...65700 nanopubs...65800 nanopubs...65900 nanopubs...66000 nanopubs...66100 nanopubs...66200 nanopubs...66300 nanopubs...66400 nanopubs...66500 nanopubs...66600 nanopubs...66700 nanopubs...66800 nanopubs...66900 nanopubs...67000 nanopubs...67100 nanopubs...67200 nanopubs...67300 nanopubs...67400 nanopubs...67500 nanopubs...67600 nanopubs...67700 nanopubs...67800 nanopubs...67900 nanopubs...68000 nanopubs...68100 nanopubs...68200 nanopubs...68300 nanopubs...68400 nanopubs...68500 nanopubs...68600 nanopubs...68700 nanopubs...68800 nanopubs...68900 nanopubs...69000 nanopubs...69100 nanopubs...69200 nanopubs...69300 nanopubs...69400 nanopubs...69500 nanopubs...69600 nanopubs...69700 nanopubs...69800 nanopubs...69900 nanopubs...70000 nanopubs...70100 nanopubs...70200 nanopubs...70300 nanopubs...70400 nanopubs...70500 nanopubs...70600 nanopubs...70700 nanopubs...70800 nanopubs...70900 nanopubs...71000 nanopubs...71100 nanopubs...71200 nanopubs...71300 nanopubs...71400 nanopubs...71500 nanopubs...71600 nanopubs...71700 nanopubs...71800 nanopubs...71900 nanopubs...72000 nanopubs...72100 nanopubs...72200 nanopubs...72300 nanopubs...72400 nanopubs...72500 nanopubs...72600 nanopubs...72700 nanopubs...72800 nanopubs...72900 nanopubs...73000 nanopubs...73100 nanopubs...73200 nanopubs...73300 nanopubs...73400 nanopubs...73500 nanopubs...73600 nanopubs...73700 nanopubs...73800 nanopubs...73900 nanopubs...74000 nanopubs...04:29:14,943  INFO RetryExec:94 - I/O exception (org.apache.http.NoHttpResponseException) caught when processing request to {}->http://nanopubs.semanticscience.org:80: The target server failed to respond
04:29:14,944  INFO RetryExec:110 - Retrying request to {}->http://nanopubs.semanticscience.org:80
74100 nanopubs...74200 nanopubs...74300 nanopubs...74400 nanopubs...74500 nanopubs...74600 nanopubs...74700 nanopubs...74800 nanopubs...74900 nanopubs...75000 nanopubs...75100 nanopubs...75200 nanopubs...75300 nanopubs...75400 nanopubs...75500 nanopubs...75600 nanopubs...75700 nanopubs...75800 nanopubs...75900 nanopubs...76000 nanopubs...76100 nanopubs...76200 nanopubs...76300 nanopubs...76400 nanopubs...76500 nanopubs...76600 nanopubs...76700 nanopubs...76800 nanopubs...76900 nanopubs...77000 nanopubs...77100 nanopubs...77200 nanopubs...77300 nanopubs...77400 nanopubs...77500 nanopubs...77600 nanopubs...77700 nanopubs...77800 nanopubs...77900 nanopubs...78000 nanopubs...78100 nanopubs...78200 nanopubs...78300 nanopubs...78400 nanopubs...78500 nanopubs...78600 nanopubs...78700 nanopubs...78800 nanopubs...78900 nanopubs...79000 nanopubs...79100 nanopubs...79200 nanopubs...79300 nanopubs...79400 nanopubs...79500 nanopubs...79600 nanopubs...79700 nanopubs...79800 nanopubs...79900 nanopubs...80000 nanopubs...80100 nanopubs...80200 nanopubs...80300 nanopubs...80400 nanopubs...80500 nanopubs...80600 nanopubs...80700 nanopubs...80800 nanopubs...80900 nanopubs...81000 nanopubs...81100 nanopubs...81200 nanopubs...81300 nanopubs...81400 nanopubs...81500 nanopubs...81600 nanopubs...81700 nanopubs...81800 nanopubs...81900 nanopubs...82000 nanopubs...82100 nanopubs...82200 nanopubs...82300 nanopubs...82400 nanopubs...82500 nanopubs...82600 nanopubs...82700 nanopubs...82800 nanopubs...82900 nanopubs...83000 nanopubs...83100 nanopubs...83200 nanopubs...83300 nanopubs...83400 nanopubs...83500 nanopubs...83600 nanopubs...83700 nanopubs...83800 nanopubs...83900 nanopubs...84000 nanopubs...84100 nanopubs...84200 nanopubs...84300 nanopubs...84400 nanopubs...84500 nanopubs...84600 nanopubs...84700 nanopubs...84800 nanopubs...84900 nanopubs...85000 nanopubs...85100 nanopubs...85200 nanopubs...85300 nanopubs...85400 nanopubs...85500 nanopubs...85600 nanopubs...85700 nanopubs...85800 nanopubs...85900 nanopubs...86000 nanopubs...86100 nanopubs...86200 nanopubs...86300 nanopubs...86400 nanopubs...86500 nanopubs...86600 nanopubs...86700 nanopubs...86800 nanopubs...86900 nanopubs...87000 nanopubs...87100 nanopubs...87200 nanopubs...87300 nanopubs...87400 nanopubs...87500 nanopubs...87600 nanopubs...87700 nanopubs...87800 nanopubs...87900 nanopubs...88000 nanopubs...88100 nanopubs...88200 nanopubs...88300 nanopubs...88400 nanopubs...88500 nanopubs...88600 nanopubs...88700 nanopubs...88800 nanopubs...88900 nanopubs...89000 nanopubs...89100 nanopubs...89200 nanopubs...89300 nanopubs...89400 nanopubs...89500 nanopubs...89600 nanopubs...89700 nanopubs...89800 nanopubs...89900 nanopubs...90000 nanopubs...90100 nanopubs...90200 nanopubs...90300 nanopubs...90400 nanopubs...90500 nanopubs...90600 nanopubs...90700 nanopubs...90800 nanopubs...90900 nanopubs...91000 nanopubs...91100 nanopubs...91200 nanopubs...91300 nanopubs...91400 nanopubs...91500 nanopubs...91600 nanopubs...91700 nanopubs...91800 nanopubs...91900 nanopubs...92000 nanopubs...92100 nanopubs...92200 nanopubs...92300 nanopubs...92400 nanopubs...92500 nanopubs...92600 nanopubs...92700 nanopubs...92800 nanopubs...92900 nanopubs...93000 nanopubs...93100 nanopubs...93200 nanopubs...93300 nanopubs...93400 nanopubs...93500 nanopubs...93600 nanopubs...93700 nanopubs...93800 nanopubs...93900 nanopubs...94000 nanopubs...94100 nanopubs...94200 nanopubs...94300 nanopubs...94400 nanopubs...94500 nanopubs...94600 nanopubs...94700 nanopubs...94800 nanopubs...94900 nanopubs...95000 nanopubs...95100 nanopubs...95200 nanopubs...95300 nanopubs...95400 nanopubs...95500 nanopubs...95600 nanopubs...95700 nanopubs...95800 nanopubs...95900 nanopubs...96000 nanopubs...96100 nanopubs...96200 nanopubs...96300 nanopubs...96400 nanopubs...96500 nanopubs...96600 nanopubs...96700 nanopubs...96800 nanopubs...96900 nanopubs...97000 nanopubs...97100 nanopubs...97200 nanopubs...97300 nanopubs...97400 nanopubs...97500 nanopubs...97600 nanopubs...97700 nanopubs...97800 nanopubs...97900 nanopubs...98000 nanopubs...98085 nanopubs retrieved and saved in files/u17-nanopubs.trig
Number of retries: 2432
Used servers:
   10533 http://app.tkuhn.eculture.labs.vu.nl/nanopub-server-3/
   10509 http://nanopub.exynize.com/
   10019 http://app.tkuhn.eculture.labs.vu.nl/nanopub-server-1/
    9789 http://app.tkuhn.eculture.labs.vu.nl/nanopub-server-2/
    9727 http://app.tkuhn.eculture.labs.vu.nl/nanopub-server-4/
    9315 http://nanopubs.restdesc.org/
    8015 http://rdf.disgenet.org/nanopub-server/
    7636 http://np.inn.ac/
    6866 http://nanopub.backend1.scify.org/nanopub-server/
    6021 http://nanopubs.semanticscience.org/
    5765 http://npx1.inn.ac/
    3390 http://nanopubs.stanford.edu/nanopub-server/
    3032 http://digitalduchemin.org/np-mirror/
       0 http://rdf.disgenet.org/nanopub-server-disgenet/
Number of servers used: 13
real	7m32.158s
user	5m52.948s
sys	0m15.196s
