ottawa,new haven,zurich
,,15
,228,
,,7
349,,
,252,
,,4
355,,
,230,
,,3
394,,
,228,
,,5
382,,
,232,
,,5
423,,
,253,
,,5
384,,
,228,
,,5
383,,
,252,
,,5
384,,
,228,
,,12
388,,
,253,
,,4
325,,
,255,
,,4
362,,
,231,
,,4
356,,
,255,
,,4
260,,
,258,
,,4
364,,
,262,
,,4
289,,
,229,
,,4
344,,
,255,
,,6
261,,
,228,
,,4
259,,
,231,
,,8
261,,
,229,
,,3
235,,
,255,
,,4
260,,
,255,
,,4
283,,
,228,
,,4
235,,
,251,
,,5
259,,
,227,
,,5
234,,
,227,
,,3
235,,
,230,
,,4
264,,
,255,
,,3
236,,
,228,
,,4
235,,
,231,
,,5
237,,
,229,
,,4
262,,
,233,
,,4
260,,
,253,
,,5
237,,
,253,
,,4
301,,
,254,
,,4
346,,
,228,
,,4
261,,
,256,
,,6
259,,
,254,
,,5
237,,
,237,
,,4
260,,
,231,
,,4
365,,
,254,
,,4
235,,
,229,
,,3
260,,
,232,
,,4
234,,
,232,
,,3
234,,
,232,
,,4
260,,
,231,
,,4
259,,
,251,
,,6
234,,
,228,
,,3
235,,
,230,
,,4
236,,
,252,
,,5
236,,
,230,
,,4
258,,
,229,
,,3
235,,
,229,
,,4
261,,
,229,
,,4
285,,
,230,
,,4
258,,
,232,
,,4
261,,
,258,
,,4
380,,
,267,
,,3
284,,
,229,
,,5
259,,
,271,
,,4
234,,
,231,
,,9
234,,
,256,
,,6
257,,
,256,
,,4
235,,
,231,
,,5
234,,
,228,
,,5
258,,
,227,
,,3
258,,
,227,
,,4
233,,
,230,
,,4
259,,
,229,
,,4
259,,
,231,
,,7
234,,
,232,
,,3
260,,
,228,
,,5
284,,
,231,
,,5
234,,
,230,
,,4
258,,
,277,
,,4
261,,
,252,
,,3
234,,
,231,
,,4
234,,
,252,
,,3
258,,
,258,
,,4
259,,
,233,
,,5
233,,
,228,
,,14
262,,
,253,
,,5
258,,
,256,
,,4
234,,
,230,
,,7
284,,
,229,
,,5
283,,
,255,
,,4
234,,
,231,
,,4
260,,
,254,
,,5
235,,
,283,
,,89
259,,
,232,
,,3
234,,
,229,
,,4
238,,
,257,
,,5
258,,
,228,
,,4
237,,
,236,
,,5
258,,
,232,
,,3
237,,
,234,
,,6
234,,
,254,
,,4
259,,
,233,
,,4
234,,
,259,
,,4
259,,
,229,
,,4
259,,
,236,
,,4
265,,
,229,
,,4
259,,
,228,
,,4
260,,
,256,
,,8
260,,
,228,
,,4
234,,
,231,
,,5
234,,
,229,
,,4
235,,
,231,
,,5
235,,
,231,
,,5
285,,
,256,
,,4
233,,
,229,
,,4
259,,
,228,
,,7
234,,
,231,
,,5
259,,
,230,
,,3
236,,
,229,
,,4
235,,
,255,
,,4
260,,
,232,
,,4
235,,
,355,
,,5
233,,
,228,
,,4
234,,
,229,
,,4
235,,
,253,
,,5
259,,
,232,
,,4
234,,
,229,
,,3
234,,
,256,
,,4
282,,
,232,
,,4
337,,
,231,
,,5
265,,
,257,
,,3
234,,
,254,
,,4
235,,
,257,
,,4
233,,
,231,
,,4
258,,
,231,
,,4
234,,
,232,
,,5
234,,
,232,
,,4
233,,
,240,
,,4
260,,
,230,
,,4
234,,
,251,
,,5
235,,
,230,
,,5
236,,
,255,
,,4
260,,
,231,
,,4
234,,
,227,
,,5
259,,
,254,
,,4
259,,
,238,
,,4
235,,
,230,
,,5
235,,
,230,
,,5
234,,
,229,
,,4
260,,
,230,
,,9
284,,
,236,
,,4
235,,
,253,
,,4
266,,
,231,
,,4
260,,
,231,
,,6
262,,
,252,
,,4
236,,
,252,
,,4
259,,
,254,
,,4
233,,
,230,
,,4
283,,
,227,
,,4
283,,
,232,
,,4
234,,
,234,
,,4
236,,
,258,
,,5
260,,
,233,
,,4
259,,
,228,
,,4
259,,
,229,
,,5
235,,
,233,
,,5
259,,
,231,
,,4
285,,
,232,
,,6
260,,
,255,
,,6
259,,
,229,
,,4
235,,
,229,
,,4
337,,
,228,
,,4
259,,
,230,
,,4
284,,
,229,
,,4
259,,
,232,
,,4
259,,
,229,
,,4
233,,
,228,
,,4
236,,
,229,
,,4
259,,
,232,
,,4
236,,
,256,
,,5
237,,
,255,
,,7
260,,
,229,
,,5
235,,
,232,
,,3
260,,
,230,
,,4
235,,
,267,
,,4
573,,
,229,
,,5
259,,
,253,
,,4
259,,
,229,
,,5
259,,
,233,
,,4
234,,
,232,
,,4
234,,
,232,
,,5
761,,
,229,
,,5
234,,
,235,
,,5
261,,
,231,
,,4
260,,
,231,
,,4
234,,
,233,
,,4
284,,
,228,
,,5
236,,
,230,
,,3
261,,
,231,
,,4
286,,
,254,
,,4
234,,
,256,
,,5
260,,
,229,
,,3
238,,
,231,
,,5
234,,
,256,
,,5
234,,
,231,
,,5
234,,
,254,
,,5
262,,
,229,
,,3
258,,
,254,
,,4
260,,
,255,
,,7
234,,
,231,
,,4
260,,
,230,
,,26
261,,
,256,
,,5
259,,
,379,
,,5
261,,
,256,
,,5
260,,
,230,
,,4
235,,
,259,
,,4
285,,
,232,
,,4
284,,
,229,
,,4
235,,
,256,
,,4
235,,
,230,
,,4
234,,
,229,
,,8
235,,
,229,
,,4
259,,
,230,
,,4
260,,
,230,
,,5
234,,
,256,
,,4
259,,
,231,
,,18
259,,
,252,
,,14
259,,
,232,
,,5
234,,
,230,
,,4
285,,
,254,
,,6
260,,
,230,
,,4
234,,
,229,
,,4
283,,
,234,
,,6
257,,
,232,
,,7
234,,
,232,
,,4
236,,
,258,
,,4
259,,
,230,
,,4
259,,
,230,
,,4
258,,
,230,
,,4
285,,
,256,
,,5
234,,
,232,
,,4
286,,
,228,
,,4
234,,
,230,
,,4
264,,
,231,
,,5
235,,
,255,
,,5
260,,
,231,
,,4
284,,
,254,
,,20
283,,
,232,
,,6
235,,
,256,
,,4
235,,
,257,
,,5
259,,
,257,
,,4
259,,
,229,
,,4
284,,
,253,
,,4
234,,
,255,
,,4
264,,
,228,
,,4
259,,
,233,
,,6
260,,
,234,
,,4
282,,
,229,
,,4
279,,
,256,
,,4
235,,
,229,
,,6
260,,
,229,
,,14
234,,
,230,
,,4
235,,
,231,
,,4
234,,
,231,
,,5
260,,
,229,
,,4
259,,
,231,
,,4
263,,
,241,
,,8
259,,
,254,
,,5
235,,
,232,
,,5
260,,
,253,
,,15
283,,
,255,
,,4
234,,
,230,
,,5
262,,
,254,
,,5
261,,
,229,
,,4
239,,
,258,
,,5
291,,
,232,
,,4
259,,
,256,
,,4
235,,
,233,
,,6
259,,
,232,
,,4
257,,
,231,
,,3
235,,
,234,
,,4
260,,
,232,
,,4
234,,
,234,
,,4
259,,
,231,
,,6
236,,
,228,
,,4
259,,
,279,
,,5
235,,
,226,
,,16
235,,
,253,
,,11
235,,
,231,
,,4
259,,
,278,
,,8
262,,
,253,
,,5
257,,
,232,
,,9
236,,
,253,
,,4
284,,
,232,
,,4
260,,
,257,
,,8
234,,
,228,
,,4
284,,
,229,
,,19
259,,
,229,
,,19
234,,
,256,
,,6
258,,
,257,
,,4
234,,
,260,
,,9
259,,
,232,
,,7
268,,
,229,
,,28
234,,
,252,
,,5
258,,
,228,
,,4
285,,
,231,
,,4
284,,
,255,
,,17
234,,
,232,
,,8
235,,
,254,
,,16
259,,
,228,
,,5
258,,
,229,
,,3
260,,
,229,
,,39
259,,
,231,
,,5
236,,
,229,
,,4
236,,
,254,
,,4
259,,
,257,
,,4
260,,
,256,
,,5
235,,
,257,
,,5
261,,
,257,
,,4
258,,
,254,
,,21
242,,
,231,
,,4
255,,
,230,
,,29
258,,
,234,
,,4
285,,
,229,
,,4
234,,
,229,
,,4
259,,
,229,
,,6
260,,
,243,
,,5
234,,
,238,
,,8
235,,
,230,
,,7
259,,
,232,
,,15
234,,
,232,
,,5
234,,
,253,
,,5
234,,
,237,
,,5
235,,
,258,
,,5
234,,
,256,
,,5
259,,
,243,
,,5
260,,
,229,
,,82
235,,
,228,
,,3
283,,
,234,
,,7
258,,
,229,
,,4
259,,
,253,
,,4
259,,
,229,
,,6
234,,
,233,
,,4
259,,
,255,
,,6
234,,
,232,
,,7
236,,
,228,
,,23
259,,
,236,
,,20
234,,
,233,
,,4
259,,
,232,
,,3
278,,
,231,
,,4
259,,
,228,
,,4
264,,
,228,
,,5
235,,
,230,
,,4
260,,
,257,
,,8
287,,
,229,
,,6
234,,
,261,
,,4
374,,
,235,
,,4
235,,
,258,
,,4
261,,
,234,
,,5
236,,
,231,
,,4
259,,
,253,
,,4
260,,
,233,
,,4
234,,
,231,
,,4
284,,
,257,
,,4
258,,
,256,
,,8
234,,
,258,
,,4
233,,
,229,
,,8
236,,
,230,
,,7
259,,
,260,
,,7
258,,
,230,
,,4
261,,
,233,
,,9
259,,
,252,
,,6
234,,
,231,
,,4
235,,
,230,
,,30
257,,
,230,
,,5
260,,
,231,
,,19
353,,
,228,
,,74
235,,
,231,
,,4
235,,
,230,
,,4
259,,
,228,
,,5
259,,
,231,
,,26
259,,
,253,
,,6
259,,
,230,
,,5
234,,
,249,
,,126
234,,
,229,
,,5
236,,
,256,
,,5
233,,
,255,
,,30
259,,
,232,
,,22
234,,
,234,
,,14
238,,
,229,
,,4
259,,
,255,
,,4
261,,
,257,
,,5
258,,
,230,
,,5
234,,
,232,
,,4
259,,
,232,
,,22
285,,
,234,
,,4
259,,
,254,
,,4
234,,
,257,
,,39
234,,
,257,
,,19
263,,
,255,
,,5
235,,
,232,
,,4
259,,
,230,
,,5
233,,
,256,
,,4
260,,
,231,
,,6
258,,
,272,
,,6
235,,
,257,
,,10
259,,
,231,
,,3
234,,
,274,
,,5
234,,
,232,
,,13
234,,
,254,
,,7
259,,
,230,
,,4
283,,
,256,
,,5
260,,
,229,
,,5
258,,
,298,
,,5
259,,
,230,
,,7
292,,
,254,
,,4
258,,
,229,
,,4
261,,
,257,
,,5
259,,
,233,
,,35
259,,
,229,
,,12
285,,
,229,
,,4
259,,
,236,
,,14
265,,
,229,
,,4
245,,
,229,
,,6
258,,
,231,
,,21
261,,
,262,
,,20
260,,
,232,
,,4
236,,
,304,
,,24
951,,
,237,
,,5
258,,
,254,
,,4
258,,
,232,
,,5
259,,
,245,
,,33
285,,
,228,
,,5
265,,
,252,
,,4
235,,
,232,
,,5
259,,
,253,
,,18
235,,
,230,
,,6
285,,
,230,
,,82
800,,
,228,
,,4
286,,
,252,
,,4
236,,
,256,
,,4
260,,
,254,
,,23
988,,
,257,
,,5
234,,
,234,
,,21
285,,
,255,
,,27
286,,
,231,
,,6
234,,
,256,
,,26
259,,
,254,
,,4
234,,
,301,
,,5
235,,
,234,
,,6
260,,
,231,
,,5
237,,
,229,
,,7
258,,
,230,
,,4
284,,
,230,
,,4
260,,
,232,
,,4
259,,
,229,
,,29
261,,
,229,
,,4
284,,
,230,
,,6
234,,
,232,
,,4
233,,
,272,
,,19
260,,
,231,
,,21
234,,
,253,
,,6
413,,
,270,
,,4
260,,
,253,
,,4
258,,
,232,
,,19
235,,
,253,
,,16
233,,
,257,
,,4
261,,
,231,
,,11
236,,
,228,
,,16
259,,
,229,
,,6
238,,
,228,
,,24
236,,
,278,
,,23
260,,
,252,
,,4
238,,
,233,
,,5
259,,
,228,
,,59
236,,
,232,
,,22
235,,
,230,
,,4
234,,
,321,
,,4
253,,
,230,
,,21
282,,
,255,
,,4
668,,
,232,
,,24
258,,
,264,
,,4
260,,
,256,
,,4
259,,
,231,
,,4
260,,
,256,
,,15
233,,
,232,
,,4
258,,
,270,
,,52
234,,
,232,
,,22
234,,
,230,
,,6
258,,
,259,
,,4
234,,
,256,
,,24
235,,
,254,
,,17
234,,
,242,
,,23
260,,
,230,
,,4
236,,
,233,
,,4
258,,
,248,
,,17
261,,
,239,
,,10
236,,
,232,
,,3
260,,
,257,
,,26
235,,
,228,
,,4
234,,
,232,
,,4
235,,
,232,
,,4
234,,
,255,
,,21
259,,
,254,
,,5
259,,
,232,
,,4
234,,
,229,
,,9
234,,
,253,
,,18
263,,
,256,
,,22
258,,
,256,
,,4
284,,
,257,
,,4
284,,
,318,
,,4
260,,
,228,
,,4
259,,
,233,
,,4
259,,
,231,
,,4
260,,
,253,
,,11
259,,
,256,
,,4
235,,
,284,
,,4
234,,
,254,
,,25
235,,
,233,
,,30
235,,
,253,
,,4
235,,
,256,
,,12
260,,
,253,
,,5
238,,
,253,
,,4
234,,
,231,
,,18
259,,
,233,
,,3
284,,
,256,
,,4
235,,
,273,
,,5
259,,
,229,
,,3
259,,
,232,
,,4
258,,
,228,
,,17
259,,
,234,
,,18
285,,
,244,
,,7
235,,
,278,
,,5
406,,
,228,
,,4
258,,
,229,
,,21
258,,
,229,
,,17
259,,
,249,
,,4
258,,
,229,
,,4
259,,
,254,
,,4
235,,
,243,
,,4
233,,
,271,
,,26
259,,
,230,
,,5
234,,
,245,
,,23
259,,
,253,
,,39
233,,
,233,
,,4
259,,
,254,
,,5
283,,
,232,
,,4
260,,
,231,
,,4
264,,
,231,
,,11
284,,
,233,
,,6
234,,
,258,
,,19
284,,
,233,
,,7
258,,
,237,
,,7
258,,
,229,
,,3
258,,
,245,
,,51
234,,
,367,
,,4
259,,
,233,
,,4
284,,
,264,
,,4
235,,
,268,
,,7
284,,
,228,
,,6
234,,
,243,
,,4
283,,
,229,
,,8
237,,
,229,
,,4
262,,
,227,
,,5
259,,
,243,
,,28
259,,
,232,
,,6
260,,
,278,
,,5
283,,
,235,
,,17
237,,
,254,
,,4
238,,
,258,
,,5
260,,
,233,
,,21
234,,
,256,
,,7
259,,
,231,
,,11
236,,
,233,
,,32
259,,
,229,
,,4
283,,
,254,
,,5
235,,
,244,
,,4
259,,
,231,
,,8
259,,
,233,
,,6
258,,
,228,
,,76
235,,
,229,
,,4
262,,
,228,
,,5
232,,
,229,
,,5
235,,
,229,
,,5
234,,
,228,
,,5
234,,
,258,
,,5
263,,
,232,
,,5
235,,
,255,
,,6
234,,
,252,
,,5
234,,
,258,
,,25
258,,
,229,
,,8
284,,
,229,
,,6
236,,
,229,
,,18
260,,
,241,
,,6
236,,
,255,
,,7
259,,
,232,
,,7
823,,
,231,
,,36
233,,
,228,
,,20
236,,
,229,
,,4
234,,
,233,
,,5
234,,
,253,
,,4
260,,
,254,
,,123
259,,
,280,
,,41
262,,
,247,
,,7
291,,
,261,
,,26
235,,
,228,
,,4
234,,
,268,
,,5
284,,
,231,
,,26
234,,
,298,
,,17
258,,
,254,
,,17
239,,
,232,
,,5
258,,
,233,
,,7
259,,
,231,
,,7
235,,
,252,
,,4
235,,
,254,
,,6
258,,
,229,
,,4
259,,
,258,
,,4
258,,
,260,
,,19
314,,
,230,
,,9
234,,
,230,
,,25
234,,
,255,
,,5
258,,
,315,
,,20
260,,
,230,
,,18
261,,
,228,
,,4
259,,
,230,
,,4
235,,
,229,
,,10
263,,
,229,
,,31
259,,
,237,
,,13
259,,
,276,
,,7
235,,
,255,
,,4
258,,
,228,
,,19
236,,
,244,
,,5
776,,
,256,
,,5
235,,
,229,
,,11
236,,
,257,
,,25
261,,
,256,
,,24
240,,
,254,
,,5
260,,
,258,
,,3
236,,
,231,
,,24
264,,
,257,
,,7
234,,
,235,
,,29
236,,
,238,
,,4
235,,
,257,
,,31
284,,
,238,
,,8
235,,
,255,
,,6
261,,
,228,
,,5
242,,
,254,
,,6
289,,
,306,
,,23
235,,
,254,
,,5
234,,
,256,
,,4
261,,
,256,
,,5
234,,
,234,
,,9
235,,
,229,
,,24
235,,
,271,
,,27
260,,
,233,
,,4
238,,
,262,
,,21
258,,
,395,
,,22
260,,
,273,
,,10
235,,
,269,
,,17
234,,
,250,
,,24
235,,
,232,
,,6
234,,
,272,
,,5
260,,
,234,
,,5
260,,
,228,
,,6
262,,
,253,
,,5
235,,
,269,
,,18
259,,
,257,
,,5
259,,
,257,
,,21
259,,
,233,
,,5
259,,
,230,
,,16
234,,
,315,
,,16
284,,
,228,
,,18
283,,
,253,
,,7
258,,
,233,
,,22
264,,
,232,
,,28
940,,
,232,
,,35
258,,
,232,
,,35
235,,
,282,
,,6
284,,
,229,
,,10
260,,
,257,
,,16
260,,
,257,
,,38
234,,
,230,
,,16
261,,
,283,
,,35
235,,
,228,
,,6
236,,
,232,
,,6
322,,
,280,
,,35
284,,
,228,
,,33
236,,
,256,
,,18
234,,
,302,
,,5
235,,
,253,
,,24
259,,
,261,
,,22
234,,
,254,
,,26
263,,
,259,
,,4
236,,
,257,
,,20
234,,
,279,
,,13
261,,
,268,
,,4
260,,
,250,
,,35
259,,
,228,
,,7
259,,
,228,
,,4
284,,
,231,
,,5
235,,
,231,
,,9
259,,
,240,
,,7
259,,
,246,
,,21
640,,
,233,
,,4
259,,
,232,
,,36
260,,
,252,
,,31
261,,
,256,
,,4
234,,
,229,
,,19
234,,
,245,
,,16
286,,
,241,
,,3
234,,
,253,
,,5
259,,
,229,
,,26
233,,
,231,
,,5
284,,
,229,
,,16
259,,
,231,
,,32
236,,
,230,
,,5
259,,
,274,
,,4
258,,
,229,
,,12
259,,
,233,
,,7
259,,
,268,
,,20
265,,
,233,
,,6
306,,
,283,
,,4
283,,
,230,
,,4
283,,
,274,
,,25
260,,
,242,
,,30
234,,
,240,
,,8
245,,
,270,
,,26
261,,
,231,
,,29
258,,
,234,
,,7
330,,
,257,
,,20
233,,
,253,
,,7
260,,
,246,
,,33
260,,
,230,
,,4
234,,
,233,
,,4
258,,
,257,
,,19
234,,
,303,
,,6
237,,
,252,
,,6
233,,
,245,
,,9
261,,
,220,
,,4
259,,
,234,
,,7
235,,
,220,
,,5
261,,
,224,
,,25
1015,,
,279,
,,4
249,,
,270,
,,7
259,,
,219,
,,4
238,,
,223,
,,24
240,,
,266,
,,20
259,,
,300,
,,9
237,,
,246,
,,18
237,,
,275,
,,28
262,,
,280,
,,26
260,,
,270,
,,6
269,,
,253,
,,74
268,,
,228,
,,92
283,,
,328,
,,5
259,,
,232,
,,25
260,,
,267,
,,5
259,,
,252,
,,24
234,,
,228,
,,4
235,,
,231,
,,35
236,,
,256,
,,37
263,,
,305,
,,15
234,,
,254,
,,25
261,,
,234,
,,23
252,,
,229,
,,23
259,,
,300,
,,25
259,,
,256,
,,6
239,,
,231,
,,4
238,,
,231,
,,28
234,,
,268,
,,26
235,,
,256,
,,138
259,,
,251,
,,37
259,,
,253,
,,16
235,,
,228,
,,39
259,,
,279,
,,39
285,,
,229,
,,15
235,,
,228,
,,5
235,,
,256,
,,75
287,,
,229,
,,27
234,,
,251,
,,26
237,,
,265,
,,4
273,,
,363,
,,30
241,,
,232,
,,6
260,,
,233,
,,5
262,,
,253,
,,6
234,,
,273,
,,4
259,,
,240,
,,39
234,,
,228,
,,24
235,,
,252,
,,4
259,,
,257,
,,4
238,,
,228,
,,21
237,,
,243,
,,9
283,,
,229,
,,4
241,,
,245,
,,4
258,,
,252,
,,7
234,,
,264,
,,5
260,,
,232,
,,22
234,,
,247,
,,4
259,,
,231,
,,8
234,,
,245,
,,5
259,,
,253,
,,20
233,,
,278,
,,4
234,,
,233,
,,6
258,,
,229,
,,5
262,,
